{
    "General": [
        [
            "Toolbar",
            "T"
        ],
        [
            "Properties",
            "N"
        ],
        [
            "Add Object/Node",
            "Shift + A"
        ],
        [
            "Delete",
            "X or Delete"
        ],
        [
            "Search for Function",
            "F3"
        ],
        [
            "Move",
            "G"
        ],
        [
            "Scale",
            "S"
        ],
        [
            "Rotate",
            "R"
        ],
        [
            "...along axis",
            "G/S/R + X/Y/Z"
        ],
        [
            "along local axis",
            "G/S/R + XX/YY/ZZ"
        ],
        [
            "along two axis ex:Y/Z",
            "Shift + ex: X"
        ],
        [
            "Free Rotate",
            "R,R"
        ],
        [
            "Precise movement",
            "G/S/R + axis + Shift (hold)"
        ],
        [
            "Incremental movement",
            "G/S/R + axis + Ctrl (hold)"
        ],
        [
            "Duplicate",
            "Shift + D"
        ],
        [
            "Duplicate linked",
            "Alt + D"
        ],
        [
            "Hide",
            "H"
        ],
        [
            "Unhide All",
            "Alt + H"
        ],
        [
            "Hide all Except Selected",
            "Shift + H"
        ],
        [
            "Annotate",
            "D (hold) + LMB (drag)"
        ],
        [
            "Erase Annotation",
            "D (hold) + RMB (drag)"
        ],
        [
            "Quick favs menu",
            "Q"
        ]
    ],
    "General Selection": [
        [
            "Select",
            "LMB"
        ],
        [
            "Select All",
            "A"
        ],
        [
            "Deselect All",
            "Alt + A or A,A"
        ],
        [
            "Marquee Box Select",
            "B or LMB (drag)"
        ],
        [
            "Circle Select",
            "C"
        ],
        [
            "Lasso Select",
            "Ctrl + RMB"
        ],
        [
            "Invert Selection",
            "Ctrl + I"
        ],
        [
            "Select Linked",
            "Shift + L"
        ],
        [
            "Select Similar",
            "Shift + G"
        ],
        [
            "Select from many",
            "Alt + LMB"
        ]
    ],
    "Window General": [
        [
            "Maximise Area (but keep toolbar)",
            "Ctrl + Space"
        ],
        [
            "Fullscreen Area",
            "Ctrl + Alt + Space"
        ],
        [
            "Quad view",
            "Ctrl + Alt + Q"
        ]
    ],
    "Navigation (3D viewport)": [
        [
            "Rotate View",
            "MMB"
        ],
        [
            "Move View",
            "Shift + MMB"
        ],
        [
            "Zoom In/Out",
            "Scroll or Ctrl + MMB (drag)"
        ],
        [
            "Fly",
            "Shift + ~"
        ]
    ],
    "View (3D viewport)": [
        [
            "front",
            "1"
        ],
        [
            "down",
            "2"
        ],
        [
            "side",
            "3"
        ],
        [
            "left",
            "4"
        ],
        [
            "persp/ortho",
            "5"
        ],
        [
            "right",
            "6"
        ],
        [
            "top",
            "7"
        ],
        [
            "up",
            "8"
        ],
        [
            "opposite",
            "9"
        ],
        [
            "focus",
            ". (numpad)"
        ],
        [
            "isolate",
            "/ (numpad)"
        ],
        [
            "View Pie Menu",
            "~"
        ],
        [
            "Fast View Switch",
            "Alt + MMB (drag)"
        ],
        [
            "Show All Objects",
            "Home"
        ],
        [
            "Zoom to Region",
            "Shift + B"
        ]
    ],
    "Object Mode (3D viewport)": [
        [
            "Mode Pie Menu",
            "Ctrl + TAB"
        ],
        [
            "Edit/Object mode toggle",
            "TAB"
        ],
        [
            "Mirror",
            "Ctrl + M ; X/Y/Z or MMB (drag)"
        ],
        [
            "Set Parent (last selected)",
            "Ctrl + P"
        ],
        [
            "Clear Parent",
            "Alt + P"
        ],
        [
            "Toggle Snapping",
            "Shift + TAB"
        ],
        [
            "Clear Location",
            "Alt + G"
        ],
        [
            "Clear Rotation",
            "Alt + R"
        ],
        [
            "Clear Scale",
            "Alt + S"
        ],
        [
            "Apply Location/Scale/Rotation",
            "Ctrl + A"
        ],
        [
            "Join Selected Objects",
            "Ctrl + J"
        ],
        [
            "Copy Attributes to New Objects",
            "Ctrl + L"
        ],
        [
            "Add Subdivision level",
            "Ctrl + 0/1/2/3/4/5"
        ],
        [
            "Mask view to region/Clear Mask",
            "Alt + B"
        ],
        [
            "Center 3D cursor",
            "Shift + C"
        ],
        [
            "Move active object to collection",
            "M"
        ],
        [
            "Move Active Camera to view",
            "Ctrl + Alt + Numpad 0"
        ],
        [
            "Set as Active Camera",
            "Ctrl + Numpad 0"
        ]
    ],
    "Shading (3D viewport)": [
        [
            "Shading Pie Menu",
            "Z"
        ],
        [
            "Toggle X-Ray",
            "Alt + Z"
        ]
    ],
    "Selection (Edit Mode)": [
        [
            "Select Connected Mesh",
            "Ctrl + L"
        ],
        [
            "Select Connected Mesh Under Cursor",
            "L"
        ],
        [
            "Select Edge Loop",
            "Alt + LMB"
        ],
        [
            "Select Edge Ring",
            "Ctrl + Alt + RMB"
        ],
        [
            "Vertex Select Mode",
            "1"
        ],
        [
            "Edge Select Mode",
            "2"
        ],
        [
            "Face Select Mode",
            "3"
        ],
        [
            "Mirror current selection",
            "Ctrl + Shift + M"
        ],
        [
            "Grow/Schrink Selection",
            "Ctrl +/-"
        ],
        [
            "Edge Crease Con",
            "Ctrl + E"
        ]
    ],
    "Curve Editing (Edit Mode)": [
        [
            "Add new handle",
            "E or Ctrl + RMB"
        ],
        [
            "Change handle type",
            "V"
        ],
        [
            "Delete but maintain connection",
            "Ctrl + X"
        ],
        [
            "Close curve",
            "Alt + C"
        ],
        [
            "Tilt",
            "Ctrl T"
        ],
        [
            "Clear Tilt",
            "Alt + T"
        ],
        [
            "Convert Curve to Mesh",
            "Alt + C"
        ]
    ],
    "Modelling (Edit Mode)": [
        [
            "Extrude",
            "E"
        ],
        [
            "Inset",
            "I"
        ],
        [
            "Bevel",
            "Ctrl + B"
        ],
        [
            "Bevel Vertices",
            "Ctrl + Shift + B"
        ],
        [
            "Loop cut",
            "Shift + R"
        ],
        [
            "Vertex/Edge Slide",
            "G,G"
        ],
        [
            "Knife",
            "K"
        ],
        [
            "Fill Face",
            "F"
        ],
        [
            "Shear",
            "Ctrl + Shift + Alt + S"
        ],
        [
            "Bend",
            "Shift + W"
        ],
        [
            "Split",
            "Y"
        ],
        [
            "Rip",
            "V"
        ],
        [
            "Rip Fill",
            "Alt + V"
        ],
        [
            "Merge",
            "Alt + M"
        ],
        [
            "Recalculate Normals",
            "Shift + N"
        ],
        [
            "Invert Normals",
            "Ctrl + Shift + N"
        ],
        [
            "Proportional Editing On/Off",
            "O"
        ],
        [
            "Proportional Falloff Type",
            "Shift + O"
        ],
        [
            "Separate to new object",
            "P"
        ]
    ],
    "Texturing (Edit Mode)": [
        [
            "Unwrap",
            "U"
        ],
        [
            "Mark Seam",
            "Ctrl + E"
        ]
    ],
    "UV Editor": [
        [
            "Select Island",
            "L (under cursor) or Ctrl + L"
        ],
        [
            "Stitch",
            "V"
        ],
        [
            "Weld",
            "Shift + W"
        ],
        [
            "Pin",
            "P"
        ],
        [
            "Unpin",
            "Alt + P"
        ],
        [
            "Select Pinned",
            "Shift + P"
        ]
    ],
    "Image Editor (View)": [
        [
            "Properties, Scopes, Slots and Metadata",
            "N"
        ],
        [
            "View at 100%",
            "1 (numpad)"
        ],
        [
            "View to Fit",
            "Shift + Home"
        ],
        [
            "Next Render Slot",
            "J"
        ],
        [
            "Previous Render Slot",
            "Alt + J"
        ],
        [
            "Select Render Slot",
            "1-8"
        ],
        [
            "Save Image",
            "Alt + S"
        ],
        [
            "Save Image as",
            "Shift + S"
        ]
    ],
    "Image Editor (Paint)": [
        [
            "Create New Blank Image",
            "Alt + N"
        ],
        [
            "Open Image",
            "Alt + O"
        ],
        [
            "Brush Properties",
            "N"
        ],
        [
            "Brush Size",
            "F"
        ],
        [
            "Brush Strenght",
            "Shift + F"
        ],
        [
            "Sample Color",
            "S"
        ],
        [
            "Flip Color",
            "X"
        ]
    ],
    "Nodes (Materials/Compositor)": [
        [
            "Cut Connection",
            "Ctrl + RMB (drag"
        ],
        [
            "Connect selected",
            "F"
        ],
        [
            "Properties",
            "N"
        ],
        [
            "Delete selected but maintain connection",
            "Ctrl + X"
        ],
        [
            "Duplicate selected and maintain connection",
            "Ctrl + Shift + D"
        ],
        [
            "Mute Selected",
            "M"
        ],
        [
            "Group Selected",
            "Ctrl + G"
        ],
        [
            "Ungroup Selected",
            "Ctrl + Alt + G"
        ],
        [
            "Enter/Exit Group (Toggle)",
            "TAB"
        ],
        [
            "Frame Selected Nodes",
            "Ctrl + J"
        ],
        [
            "Show/Hide inactive node slots",
            "Ctrl + H"
        ]
    ],
    "Compositor": [
        [
            "Move backdrop",
            "Alt + MMB"
        ],
        [
            "Zoom backdrop",
            "V / Alt + V"
        ],
        [
            "Properties and performance",
            "N"
        ]
    ],
    "Sculting": [
        [
            "Brush Selection",
            "Shift + Space"
        ],
        [
            "Brush Size",
            "F"
        ],
        [
            "Brush Strenght",
            "Shift + F"
        ],
        [
            "Brush Angle",
            "Ctrl + F"
        ],
        [
            "Angle Control",
            "R"
        ],
        [
            "Stroke Control",
            "E"
        ],
        [
            "Mask (box)",
            "B"
        ],
        [
            "Mask (brush)",
            "M"
        ],
        [
            "Clear Mask",
            "Alt + M"
        ],
        [
            "Invert Mask",
            "Ctrl + I"
        ],
        [
            "Hide (box)",
            "H"
        ]
    ],
    "Rendering": [
        [
            "Render",
            "F12"
        ],
        [
            "Render Animation",
            "Ctrl + F12"
        ],
        [
            "Playback rendered animation",
            "Ctrl + F11"
        ],
        [
            "Set Render Region",
            "Ctrl + B"
        ],
        [
            "Clear Render Region",
            "Ctrl + Alt + B"
        ]
    ],
    "Animation General": [
        [
            "Play/Pause Playback",
            "Space"
        ],
        [
            "Reverse Play",
            "Ctrl + Shift + Space"
        ],
        [
            "Scroll through frames",
            "Alt + Scroll"
        ],
        [
            "Next/Previous Frame",
            "Left/Right arrow"
        ],
        [
            "First/Last Frame",
            "Shift + Left/Right arrow"
        ],
        [
            "Jump to Keyframe",
            "Up/Down arrow"
        ],
        [
            "Add Keyframe on current frame",
            "I"
        ],
        [
            "Delete Keyframe on current frame",
            " Alt + I"
        ]
    ],
    "Animation (Timeline/Dopesheet/Graph Editor)": [
        [
            "Toggle Dopesheet",
            "Ctrl + TAB"
        ],
        [
            "Toggle Frames/Seconds",
            "Ctrl + T"
        ],
        [
            "Zoom to fit  active keyframes",
            "Home or . (numpad)"
        ],
        [
            "Set Keyframe interpolation",
            "T"
        ],
        [
            "Set Keyframe Handle Type",
            "V"
        ],
        [
            "Set Keyframe Extrapolation",
            "Shift + E"
        ],
        [
            "Mirror Keyframes",
            "Ctrl + M"
        ],
        [
            "Set Preview Range",
            "P then LMB (drag)"
        ],
        [
            "Auto set preview range",
            "Ctrl + Alt + P"
        ],
        [
            "Clear Preview",
            "Alt + P"
        ],
        [
            "Marker",
            "M"
        ],
        [
            "Rename Marker",
            "Ctrl + M"
        ],
        [
            "Bind Selected Camera to Selected Marker",
            "Ctrl + B"
        ],
        [
            "Select keyframes before/after current frame",
            "[/]"
        ],
        [
            "Select all keyframes on current frames",
            "Ctrl + K"
        ]
    ],
    "Graph Editor": [
        [
            "Add Keyframe at Cursor",
            "Ctrl + RMB"
        ],
        [
            "Properties and Modifiers",
            "N"
        ],
        [
            "Lock Selected Channel",
            "TAB"
        ]
    ],
    "Rigging (Armatures)": [
        [
            "Add new bone",
            "E"
        ],
        [
            "Duplicate bone",
            "Shift + D"
        ],
        [
            "Bone Settings",
            "Shift + W"
        ],
        [
            "Roll",
            "Ctrl + R"
        ],
        [
            "Clear Roll",
            "Alt + R"
        ],
        [
            "Recalculate Roll",
            "Shift + N"
        ],
        [
            "Align bone",
            "Ctrl + Alt + A"
        ],
        [
            "Switch bone direction",
            "Alt + F"
        ],
        [
            "Merge bones",
            "Alt + M"
        ],
        [
            "Dissolve bones",
            "Ctrl + X"
        ],
        [
            "Split",
            "Y"
        ],
        [
            "Separate",
            "P"
        ],
        [
            "Scroll Hierarchy",
            "] and ["
        ]
    ],
    "Posing Mode": [
        [
            "Add Keyframe",
            "I"
        ],
        [
            "Clear Location",
            "Alt + G"
        ],
        [
            "Clear Rotation",
            "Alt + R"
        ],
        [
            "Clear Scale",
            "Alt + S"
        ],
        [
            "Apply Pose",
            "Ctrl + A"
        ],
        [
            "Propagate Pose",
            "Alt + P"
        ],
        [
            "Push Pose from Breakdown",
            "Ctrl + E"
        ],
        [
            "Relax Pose to Breakdown",
            "Alt + E"
        ],
        [
            "Pose Breakdowner",
            "Shift + E"
        ],
        [
            "Copy Pose",
            "Ctrl + C"
        ],
        [
            "Paste Pose",
            "Ctrl + V"
        ],
        [
            "Add IK",
            "Shift + I"
        ],
        [
            "Add Pose to Library",
            "Shift + L"
        ],
        [
            "Paste pose Flipped",
            "Ctrl + Shift + V"
        ],
        [
            "Add Constraint",
            "Ctrl + Shift + C"
        ]
    ],
    "Change Window Type (Under Cursor)": [
        [
            "Movie Clip",
            "Shift + F2"
        ],
        [
            "Nodes",
            "Shift + F3"
        ],
        [
            "Python Console",
            "Shift + F4"
        ],
        [
            "3D viewport",
            "Shift + F5"
        ],
        [
            "Graph",
            "Shift + F6"
        ],
        [
            "Properties",
            "Shift + F7"
        ],
        [
            "Video Sequencer",
            "Shift + F8"
        ],
        [
            "Outliner",
            "Shift + F9"
        ],
        [
            "UV/Image",
            "Shift + F10"
        ],
        [
            "Text",
            "Shift + F11"
        ],
        [
            "Dope Sheet",
            "Shift + F12"
        ]
    ]
}